/t:library
/w:0
/r:bin\Artech.Security.API.Common.dll

/r:bin\GXClasses.dll
/r:system.web.dll
/r:system.web.services.dll
/r:system.web.dll
/r:bin\Interop.GXOFFICE2Lib.dll
/r:bin\GxExcelI.dll
/r:bin\GxMail.dll
/r:system.dll
/r:system.data.dll
/r:system.data.dll
/r:bin\GeneXus.Programs.Common.dll
/r:bin\GeneXus.dll
/r:bin\GeneXus.dll
/r:GxBaseBuilder.dll
/out:bin\k2btoolsindexadmin.dll
k2bisauthorizedactivity.cs
k2bsessionget.cs
k2bisauthorizedactivitylist.cs
k2bisauthorizedactivityname.cs
k2bgetcontext.cs
k2btoolsindexadmin.cs
